…
``` r
blocked_pairs <- reclin_pair_blocking(x = orig_dat,
                                      y = edited_dat, 
                                      blocking_var = c('first_name', 'last_name'), #Block on Any of these Columns
                                      token_types =  c('company_name', 'address'), #Block on Any of these tokens
                                      col_nms_x = c('company_name', 'address'),    # Column Names
                                      col_nms_y =  c('company_name', 'address'),   # Column Names
                                      min_token_u_prob = 0.0000784)               # min u_prob to consider blocking on

blocked_pairs |>
  as_tibble() 
```

    ## # A tibble: 22 x 2
    ##        x     y
    ##    <int> <int>
    ##  1     1     1
    ##  2     2     2
    ##  3     2    17
    ##  4     3     3
    ##  5     4    13
    ##  6     5     5
    ##  7     6     6
    ##  8     7     7
    ##  9     8     8
    ## 10    13    13
    ## # ... with 12 more rows
…
