…
``` r
blocked_pairs <- reclin_pair_blocking(x = orig_dat,
                                      y = edited_dat, 
                                      blocking_var = c('first_name', 'last_name'), #Block on Any of these Columns
                                      token_types =  c('company_name', 'address'), #Block on Any of these tokens
                                      col_nms_x = c('company_name', 'address'),    # Column Names
                                      col_nms_y =  c('company_name', 'address'),   # Column Names
                                      min_token_u_prob = 0.0000784)               # min u_prob to consider blocking on

blocked_pairs |>
  as_tibble() 
```

    ## # A tibble: 37,341 x 2
    ##        x     y
    ##    <int> <int>
    ##  1     1    71
    ##  2     1   134
    ##  3     1   158
    ##  4     1   235
    ##  5     1   275
    ##  6     1   289
    ##  7     1   355
    ##  8     1   422
    ##  9     1   452
    ## 10     1   454
    ## # ... with 37,331 more rows
…
